{ "columns":32,
 "image":"menu.png",
 "imageheight":256,
 "imagewidth":256,
 "margin":0,
 "name":"menu",
 "properties":
    {
     "BlankTile":1023,
     "TransparentColor":"FF00FF"
    },
 "propertytypes":
    {
     "BlankTile":"int",
     "TransparentColor":"string"
    },
 "spacing":0,
 "tilecount":1024,
 "tileheight":8,
 "tilewidth":8,
 "type":"tileset"
}