{ "height":32,
 "infinite":false,
 "layers":[
        {
         "layers":[
                {
                 "data":[34, 34, 34, 34, 34, 34, 34, 34, 34, 34, 34, 34, 34, 34, 34, 34, 34, 34, 34, 34, 34, 34, 34, 34, 34, 34, 34, 34, 34, 34, 34, 34, 1, 2, 2, 2, 2, 2, 2, 2, 2, 2, 2, 2, 2, 2, 2, 2, 2, 2, 2, 3, 34, 34, 34, 34, 34, 34, 34, 34, 34, 34, 34, 34, 33, 0, 928, 928, 928, 928, 928, 928, 928, 928, 928, 928, 928, 928, 928, 928, 928, 928, 928, 35, 34, 34, 34, 34, 34, 34, 34, 34, 34, 34, 34, 34, 33, 0, 928, 928, 928, 928, 928, 928, 928, 928, 928, 928, 928, 928, 928, 928, 928, 928, 928, 35, 34, 34, 34, 34, 34, 34, 34, 34, 34, 34, 34, 34, 33, 0, 928, 928, 928, 928, 928, 928, 928, 928, 928, 928, 928, 928, 928, 928, 928, 928, 928, 35, 34, 34, 34, 34, 34, 34, 34, 34, 34, 34, 34, 34, 33, 0, 928, 928, 928, 928, 928, 928, 928, 928, 928, 928, 928, 928, 928, 928, 928, 928, 928, 35, 34, 34, 34, 34, 34, 34, 34, 34, 34, 34, 34, 34, 33, 0, 928, 928, 928, 928, 928, 928, 928, 928, 928, 928, 928, 928, 928, 928, 928, 928, 928, 35, 34, 34, 34, 34, 34, 34, 34, 34, 34, 34, 34, 34, 33, 0, 928, 928, 928, 928, 928, 928, 928, 928, 928, 928, 928, 928, 928, 928, 928, 928, 928, 35, 34, 34, 34, 34, 34, 34, 34, 34, 34, 34, 34, 34, 33, 0, 928, 928, 928, 928, 928, 928, 928, 928, 928, 928, 928, 928, 928, 928, 928, 928, 928, 35, 34, 34, 34, 34, 34, 34, 34, 34, 34, 34, 34, 34, 33, 0, 928, 928, 928, 928, 928, 928, 928, 928, 928, 928, 928, 928, 928, 928, 928, 928, 928, 35, 34, 34, 34, 34, 34, 34, 34, 34, 34, 34, 34, 34, 33, 0, 928, 928, 928, 928, 928, 928, 928, 928, 928, 928, 928, 928, 928, 928, 928, 928, 928, 35, 34, 34, 34, 34, 34, 34, 34, 34, 34, 34, 34, 34, 33, 0, 928, 928, 928, 928, 928, 928, 928, 928, 928, 928, 928, 928, 928, 928, 928, 928, 928, 35, 34, 34, 34, 34, 34, 34, 34, 34, 34, 34, 34, 34, 33, 0, 928, 928, 928, 928, 928, 928, 928, 928, 928, 928, 928, 928, 928, 928, 928, 928, 928, 35, 34, 34, 34, 34, 34, 34, 34, 34, 34, 34, 34, 34, 33, 0, 928, 928, 928, 928, 928, 928, 928, 928, 928, 928, 928, 928, 928, 928, 928, 928, 928, 35, 34, 34, 34, 34, 34, 34, 34, 34, 34, 34, 34, 34, 33, 0, 928, 928, 928, 928, 928, 928, 928, 928, 928, 928, 928, 928, 928, 928, 928, 928, 928, 35, 34, 34, 34, 34, 34, 34, 34, 34, 34, 34, 34, 34, 33, 0, 928, 928, 928, 928, 928, 928, 928, 928, 928, 928, 928, 928, 928, 928, 928, 928, 928, 35, 34, 34, 34, 34, 34, 34, 34, 34, 34, 34, 34, 34, 33, 0, 928, 928, 928, 928, 928, 928, 928, 928, 928, 928, 928, 928, 928, 928, 928, 928, 928, 35, 34, 34, 34, 34, 34, 34, 34, 34, 34, 34, 34, 34, 33, 0, 928, 928, 928, 928, 928, 928, 928, 928, 928, 928, 928, 928, 928, 928, 928, 928, 928, 35, 34, 34, 34, 34, 34, 34, 34, 34, 34, 34, 34, 34, 33, 0, 928, 928, 928, 928, 928, 928, 928, 928, 928, 928, 928, 928, 928, 928, 928, 928, 928, 35, 34, 34, 34, 34, 34, 34, 34, 34, 34, 34, 34, 34, 33, 0, 928, 928, 928, 928, 928, 928, 928, 928, 928, 928, 928, 928, 928, 928, 928, 928, 928, 35, 34, 34, 34, 34, 34, 34, 34, 34, 34, 34, 34, 34, 33, 0, 928, 928, 928, 928, 928, 928, 928, 928, 928, 928, 928, 928, 928, 928, 928, 928, 928, 35, 34, 34, 34, 34, 34, 34, 34, 34, 34, 34, 34, 34, 65, 66, 66, 66, 66, 66, 66, 66, 66, 66, 66, 66, 66, 66, 66, 66, 66, 66, 66, 67, 34, 34, 34, 34, 34, 34, 34, 34, 34, 34, 34, 34, 34, 34, 34, 34, 34, 34, 34, 34, 34, 34, 34, 34, 34, 34, 34, 34, 34, 34, 34, 34, 34, 34, 34, 34, 34, 34, 34, 34, 34, 34, 34, 34, 34, 34, 34, 34, 34, 34, 34, 34, 34, 34, 34, 34, 34, 34, 34, 34, 34, 34, 34, 34, 34, 34, 34, 34, 34, 34, 34, 34, 34, 34, 34, 34, 34, 34, 34, 34, 34, 34, 34, 34, 34, 34, 34, 34, 34, 34, 34, 34, 34, 34, 34, 34, 34, 34, 34, 34, 34, 34, 34, 34, 34, 34, 34, 34, 0, 0, 0, 0, 0, 0, 0, 0, 0, 0, 0, 0, 0, 0, 0, 0, 0, 0, 0, 0, 0, 0, 0, 0, 0, 0, 0, 0, 0, 0, 0, 0, 0, 0, 0, 0, 0, 0, 0, 0, 0, 0, 0, 0, 0, 0, 0, 0, 0, 0, 0, 0, 0, 0, 0, 0, 0, 0, 0, 0, 0, 0, 0, 0, 0, 0, 0, 0, 0, 0, 0, 0, 0, 0, 0, 0, 0, 0, 0, 0, 0, 0, 0, 0, 0, 0, 0, 0, 0, 0, 0, 0, 0, 0, 0, 0, 0, 0, 0, 0, 0, 0, 0, 0, 0, 0, 0, 0, 0, 0, 0, 0, 0, 0, 0, 0, 0, 0, 0, 0, 0, 0, 0, 0, 0, 0, 0, 0, 0, 0, 0, 0, 0, 0, 0, 0, 0, 0, 0, 0, 0, 0, 0, 0, 0, 0, 0, 0, 0, 0, 0, 0, 0, 0, 0, 0, 0, 0, 0, 0, 0, 0, 0, 0, 0, 0, 0, 0, 0, 0, 0, 0, 0, 0, 0, 0, 0, 0, 0, 0, 0, 0, 0, 0, 0, 0, 0, 0, 0, 0, 0, 0, 0, 0, 0, 0, 0, 0, 0, 0, 0, 0, 0, 0, 0, 0, 0, 0, 0, 0, 0, 0, 0, 0, 0, 0, 0, 0, 0, 0, 0, 0, 0, 0],
                 "height":32,
                 "name":"Background",
                 "opacity":1,
                 "type":"tilelayer",
                 "visible":true,
                 "width":32,
                 "x":0,
                 "y":0
                }, 
                {
                 "data":[0, 0, 0, 0, 0, 0, 0, 0, 0, 0, 0, 0, 0, 0, 0, 0, 0, 0, 0, 0, 0, 0, 0, 0, 0, 0, 0, 0, 0, 0, 0, 0, 0, 0, 0, 0, 0, 0, 0, 0, 0, 0, 0, 0, 0, 0, 0, 0, 0, 0, 0, 0, 0, 0, 0, 0, 0, 0, 0, 0, 0, 0, 0, 0, 0, 0, 0, 0, 0, 0, 0, 0, 0, 0, 0, 0, 0, 0, 0, 0, 0, 0, 0, 0, 0, 0, 0, 0, 0, 0, 0, 0, 0, 0, 0, 0, 0, 0, 0, 0, 0, 0, 0, 0, 0, 0, 0, 0, 0, 0, 0, 0, 0, 0, 0, 0, 0, 0, 0, 0, 0, 0, 0, 0, 0, 0, 0, 0, 0, 0, 0, 0, 0, 0, 0, 0, 0, 0, 0, 0, 0, 0, 0, 0, 0, 0, 0, 0, 0, 0, 0, 0, 0, 0, 0, 0, 0, 0, 0, 0, 0, 0, 0, 0, 0, 0, 0, 0, 0, 0, 0, 0, 0, 0, 0, 0, 0, 0, 0, 0, 0, 0, 0, 0, 0, 0, 0, 0, 0, 0, 0, 0, 0, 0, 0, 0, 0, 0, 0, 0, 0, 0, 0, 0, 0, 0, 0, 0, 0, 0, 0, 0, 0, 0, 0, 0, 0, 0, 0, 0, 0, 0, 0, 0, 0, 0, 0, 0, 0, 0, 0, 0, 0, 0, 0, 0, 0, 0, 0, 0, 0, 0, 0, 0, 0, 0, 0, 0, 0, 0, 0, 0, 0, 0, 0, 0, 0, 0, 0, 0, 0, 0, 0, 0, 0, 0, 0, 0, 0, 0, 0, 0, 0, 0, 0, 0, 0, 0, 0, 0, 0, 0, 0, 0, 0, 0, 0, 0, 0, 0, 0, 0, 0, 0, 0, 0, 0, 0, 0, 0, 0, 0, 0, 0, 0, 0, 0, 0, 0, 0, 0, 0, 0, 0, 0, 0, 0, 0, 0, 0, 0, 0, 0, 0, 0, 0, 0, 0, 0, 0, 0, 0, 0, 0, 0, 0, 0, 0, 0, 0, 0, 0, 0, 0, 0, 0, 0, 0, 0, 0, 0, 0, 0, 0, 0, 0, 0, 0, 0, 0, 0, 0, 0, 0, 0, 0, 0, 0, 0, 0, 0, 0, 0, 0, 0, 0, 0, 0, 0, 0, 0, 0, 0, 0, 0, 0, 0, 0, 0, 0, 0, 0, 0, 0, 0, 0, 0, 0, 0, 0, 0, 0, 0, 0, 0, 0, 0, 0, 0, 0, 0, 0, 0, 0, 0, 0, 0, 0, 0, 0, 0, 0, 0, 0, 0, 0, 0, 0, 0, 0, 0, 0, 0, 0, 0, 0, 0, 0, 0, 0, 0, 0, 0, 0, 0, 0, 0, 0, 0, 0, 0, 0, 0, 0, 0, 0, 0, 0, 0, 0, 0, 0, 0, 0, 0, 0, 0, 0, 0, 0, 0, 0, 0, 0, 0, 0, 0, 0, 0, 0, 0, 0, 0, 0, 0, 0, 0, 0, 0, 0, 0, 0, 0, 0, 0, 0, 0, 0, 0, 0, 0, 0, 0, 0, 0, 0, 0, 0, 0, 0, 0, 0, 0, 0, 0, 0, 0, 0, 0, 0, 0, 0, 0, 0, 0, 0, 0, 0, 0, 0, 0, 0, 0, 0, 0, 0, 0, 0, 0, 0, 0, 0, 0, 0, 0, 0, 0, 0, 0, 0, 0, 0, 0, 0, 0, 0, 0, 0, 0, 0, 0, 0, 0, 0, 0, 0, 0, 0, 0, 0, 0, 0, 0, 0, 0, 0, 0, 0, 0, 0, 0, 0, 0, 0, 0, 0, 0, 0, 0, 0, 0, 0, 0, 0, 0, 0, 0, 0, 0, 0, 0, 0, 0, 0, 0, 0, 0, 0, 0, 0, 0, 0, 0, 0, 0, 0, 0, 0, 0, 0, 0, 0, 0, 0, 0, 0, 0, 0, 0, 0, 0, 0, 0, 0, 0, 0, 0, 0, 0, 0, 0, 0, 0, 0, 0, 0, 0, 0, 0, 0, 0, 0, 0, 0, 0, 0, 0, 0, 0, 0, 0, 0, 0, 0, 0, 0, 0, 0, 0, 0, 0, 0, 0, 0, 0, 0, 0, 0, 0, 0, 0, 0, 0, 0, 0, 0, 0, 0, 0, 0, 0, 0, 0, 0, 0, 0, 0, 0, 0, 0, 0, 0, 0, 0, 0, 0, 0, 0, 0, 0, 0, 0, 0, 0, 0, 0, 0, 0, 0, 0, 0, 0, 0, 0, 0, 0, 0, 0, 0, 0, 0, 0, 0, 0, 0, 0, 0, 0, 0, 0, 0, 0, 0, 0, 0, 0, 0, 0, 0, 0, 0, 0, 0, 0, 0, 0, 0, 0, 0, 0, 0, 0, 0, 0, 0, 0, 0, 0, 0, 0, 0, 0, 0, 0, 0, 0, 0, 0, 0, 0, 0, 0, 0, 0, 0, 0, 0, 0, 0, 0, 0, 0, 0, 0, 0, 0, 0, 0, 0, 0, 0, 0, 0, 0, 0, 0, 0, 0, 0, 0, 0, 0, 0, 0, 0, 0, 0, 0, 0, 0, 0, 0, 0, 0, 0, 0, 0, 0, 0, 0, 0, 0, 0, 0, 0, 0, 0, 0, 0, 0, 0, 0, 0, 0, 0, 0, 0, 0, 0, 0, 0, 0, 0, 0, 0, 0, 0, 0, 0, 0, 0, 0, 0, 0, 0, 0, 0, 0, 0, 0, 0, 0, 0, 0, 0, 0, 0, 0, 0, 0, 0, 0, 0, 0, 0, 0, 0, 0, 0, 0, 0, 0, 0, 0, 0, 0, 0, 0, 0, 0, 0, 0, 0, 0, 0, 0, 0, 0, 0, 0, 0, 0, 0, 0, 0, 0, 0, 0, 0, 0, 0, 0, 0, 0, 0, 0, 0, 0, 0, 0, 0, 0, 0, 0, 0, 0, 0, 0, 0, 0, 0, 0, 0, 0, 0, 0, 0, 0, 0, 0, 0, 0, 0, 0, 0, 0, 0, 0, 0, 0, 0, 0, 0, 0, 0, 0, 0, 0, 0, 0, 0, 0, 0, 0, 0, 0, 0, 0, 0, 0, 0, 0, 0, 0, 0, 0, 0, 0, 0, 0, 0, 0, 0, 0, 0, 0, 0, 0, 0, 0, 0, 0, 0, 0, 0, 0, 0, 0, 0, 0, 0, 0, 0, 0, 0, 0, 0, 0, 0, 0, 0, 0, 0, 0],
                 "height":32,
                 "name":"Subpalettes",
                 "opacity":1,
                 "type":"tilelayer",
                 "visible":true,
                 "width":32,
                 "x":0,
                 "y":0
                }],
         "name":"Layer1",
         "opacity":1,
         "type":"group",
         "visible":true,
         "x":0,
         "y":0
        }],
 "nextobjectid":1,
 "orientation":"orthogonal",
 "renderorder":"right-down",
 "tiledversion":"1.1.2",
 "tileheight":8,
 "tilesets":[
        {
         "firstgid":1,
         "source":"..\/graphics\/tilesets\/StorageSystem.json"
        }, 
        {
         "firstgid":1025,
         "source":"..\/graphics\/tilesets\/subpaletteOverrides.json"
        }],
 "tilewidth":8,
 "type":"map",
 "version":1,
 "width":32
}